%YAML 1.1
%TAG !u! tag:unity3d.com,2011:
--- !u!1001 &3862568362013821189
PrefabInstance:
  m_ObjectHideFlags: 0
  serializedVersion: 2
  m_Modification:
    m_TransformParent: {fileID: 0}
    m_Modifications:
    - target: {fileID: 3072775163883775199, guid: a94ddd3190115eb409807474e931d1da,
        type: 3}
      propertyPath: m_Name
      value: Cable (28) Variant
      objectReference: {fileID: 0}
    - target: {fileID: 3072775163883775199, guid: a94ddd3190115eb409807474e931d1da,
        type: 3}
      propertyPath: m_StaticEditorFlags
      value: 4294967295
      objectReference: {fileID: 0}
    - target: {fileID: 2448795757462561762, guid: a94ddd3190115eb409807474e931d1da,
        type: 3}
      propertyPath: m_LocalPosition.x
      value: 0
      objectReference: {fileID: 0}
    - target: {fileID: 2448795757462561762, guid: a94ddd3190115eb409807474e931d1da,
        type: 3}
      propertyPath: m_LocalPosition.y
      value: 1
      objectReference: {fileID: 0}
    - target: {fileID: 2448795757462561762, guid: a94ddd3190115eb409807474e931d1da,
        type: 3}
      propertyPath: m_LocalPosition.z
      value: 0
      objectReference: {fileID: 0}
    - target: {fileID: 2448795757462561762, guid: a94ddd3190115eb409807474e931d1da,
        type: 3}
      propertyPath: m_LocalRotation.x
      value: -0
      objectReference: {fileID: 0}
    - target: {fileID: 2448795757462561762, guid: a94ddd3190115eb409807474e931d1da,
        type: 3}
      propertyPath: m_LocalRotation.y
      value: -0
      objectReference: {fileID: 0}
    - target: {fileID: 2448795757462561762, guid: a94ddd3190115eb409807474e931d1da,
        type: 3}
      propertyPath: m_LocalRotation.z
      value: -0
      objectReference: {fileID: 0}
    - target: {fileID: 2448795757462561762, guid: a94ddd3190115eb409807474e931d1da,
        type: 3}
      propertyPath: m_LocalRotation.w
      value: 1
      objectReference: {fileID: 0}
    - target: {fileID: 2448795757462561762, guid: a94ddd3190115eb409807474e931d1da,
        type: 3}
      propertyPath: m_RootOrder
      value: 0
      objectReference: {fileID: 0}
    - target: {fileID: 2448795757462561762, guid: a94ddd3190115eb409807474e931d1da,
        type: 3}
      propertyPath: m_LocalEulerAnglesHint.x
      value: 0
      objectReference: {fileID: 0}
    - target: {fileID: 2448795757462561762, guid: a94ddd3190115eb409807474e931d1da,
        type: 3}
      propertyPath: m_LocalEulerAnglesHint.y
      value: 0
      objectReference: {fileID: 0}
    - target: {fileID: 2448795757462561762, guid: a94ddd3190115eb409807474e931d1da,
        type: 3}
      propertyPath: m_LocalEulerAnglesHint.z
      value: 0
      objectReference: {fileID: 0}
    - target: {fileID: 916043254009198308, guid: a94ddd3190115eb409807474e931d1da,
        type: 3}
      propertyPath: m_LocalRotation.x
      value: 0.44182208
      objectReference: {fileID: 0}
    - target: {fileID: 916043254009198308, guid: a94ddd3190115eb409807474e931d1da,
        type: 3}
      propertyPath: m_LocalRotation.w
      value: 0.8971027
      objectReference: {fileID: 0}
    - target: {fileID: 916043254009198308, guid: a94ddd3190115eb409807474e931d1da,
        type: 3}
      propertyPath: m_LocalRotation.y
      value: -0
      objectReference: {fileID: 0}
    - target: {fileID: 916043254009198308, guid: a94ddd3190115eb409807474e931d1da,
        type: 3}
      propertyPath: m_LocalRotation.z
      value: -0
      objectReference: {fileID: 0}
    - target: {fileID: 916043254009198308, guid: a94ddd3190115eb409807474e931d1da,
        type: 3}
      propertyPath: m_LocalEulerAnglesHint.x
      value: 0
      objectReference: {fileID: 0}
    - target: {fileID: 916043254009198308, guid: a94ddd3190115eb409807474e931d1da,
        type: 3}
      propertyPath: m_LocalEulerAnglesHint.y
      value: 11.754001
      objectReference: {fileID: 0}
    - target: {fileID: 916043254009198308, guid: a94ddd3190115eb409807474e931d1da,
        type: 3}
      propertyPath: m_LocalPosition.z
      value: -1.219
      objectReference: {fileID: 0}
    - target: {fileID: 916043254009198308, guid: a94ddd3190115eb409807474e931d1da,
        type: 3}
      propertyPath: m_LocalPosition.y
      value: 5.983
      objectReference: {fileID: 0}
    - target: {fileID: 916043254009198309, guid: a94ddd3190115eb409807474e931d1da,
        type: 3}
      propertyPath: m_Positions.Array.data[1].y
      value: 5.177525
      objectReference: {fileID: 0}
    - target: {fileID: 916043254009198309, guid: a94ddd3190115eb409807474e931d1da,
        type: 3}
      propertyPath: m_Positions.Array.data[2].y
      value: 3.662
      objectReference: {fileID: 0}
    - target: {fileID: 916043254009198309, guid: a94ddd3190115eb409807474e931d1da,
        type: 3}
      propertyPath: m_Positions.Array.data[3].y
      value: 2.5565252
      objectReference: {fileID: 0}
    - target: {fileID: 916043254009198309, guid: a94ddd3190115eb409807474e931d1da,
        type: 3}
      propertyPath: m_Positions.Array.data[4].y
      value: 1.7410003
      objectReference: {fileID: 0}
    - target: {fileID: 916043254009198309, guid: a94ddd3190115eb409807474e931d1da,
        type: 3}
      propertyPath: m_Positions.Array.data[0].z
      value: -1.219
      objectReference: {fileID: 0}
    - target: {fileID: 916043254009198309, guid: a94ddd3190115eb409807474e931d1da,
        type: 3}
      propertyPath: m_Positions.Array.data[1].z
      value: -0.21124995
      objectReference: {fileID: 0}
    - target: {fileID: 916043254009198309, guid: a94ddd3190115eb409807474e931d1da,
        type: 3}
      propertyPath: m_Positions.Array.data[2].z
      value: 0.7965001
      objectReference: {fileID: 0}
    - target: {fileID: 916043254009198309, guid: a94ddd3190115eb409807474e931d1da,
        type: 3}
      propertyPath: m_Positions.Array.data[3].z
      value: 1.8042501
      objectReference: {fileID: 0}
    - target: {fileID: 916043254009198309, guid: a94ddd3190115eb409807474e931d1da,
        type: 3}
      propertyPath: m_Positions.Array.data[4].z
      value: 2.8120003
      objectReference: {fileID: 0}
    - target: {fileID: 916043254009198309, guid: a94ddd3190115eb409807474e931d1da,
        type: 3}
      propertyPath: m_Positions.Array.data[0].y
      value: 6.983
      objectReference: {fileID: 0}
    - target: {fileID: 916043254009198309, guid: a94ddd3190115eb409807474e931d1da,
        type: 3}
      propertyPath: m_Positions.Array.data[0].x
      value: 0
      objectReference: {fileID: 0}
    - target: {fileID: 916043254009198309, guid: a94ddd3190115eb409807474e931d1da,
        type: 3}
      propertyPath: m_Positions.Array.data[1].x
      value: 0
      objectReference: {fileID: 0}
    - target: {fileID: 916043254009198309, guid: a94ddd3190115eb409807474e931d1da,
        type: 3}
      propertyPath: m_Positions.Array.data[2].x
      value: 0
      objectReference: {fileID: 0}
    - target: {fileID: 916043254009198309, guid: a94ddd3190115eb409807474e931d1da,
        type: 3}
      propertyPath: m_Positions.Array.data[3].x
      value: 0
      objectReference: {fileID: 0}
    - target: {fileID: 916043254009198309, guid: a94ddd3190115eb409807474e931d1da,
        type: 3}
      propertyPath: m_Positions.Array.data[4].x
      value: 0
      objectReference: {fileID: 0}
    - target: {fileID: 916043254009198309, guid: a94ddd3190115eb409807474e931d1da,
        type: 3}
      propertyPath: m_Parameters.widthCurve.m_Curve.Array.data[0].value
      value: 0.02135849
      objectReference: {fileID: 0}
    - target: {fileID: 916043253454517263, guid: a94ddd3190115eb409807474e931d1da,
        type: 3}
      propertyPath: m_LocalPosition.z
      value: 2.812
      objectReference: {fileID: 0}
    - target: {fileID: 916043253454517263, guid: a94ddd3190115eb409807474e931d1da,
        type: 3}
      propertyPath: m_LocalPosition.y
      value: 0.741
      objectReference: {fileID: 0}
    - target: {fileID: 916043253454517263, guid: a94ddd3190115eb409807474e931d1da,
        type: 3}
      propertyPath: m_LocalPosition.x
      value: 0
      objectReference: {fileID: 0}
    - target: {fileID: 916043254009198299, guid: a94ddd3190115eb409807474e931d1da,
        type: 3}
      propertyPath: m_StaticEditorFlags
      value: 4294967295
      objectReference: {fileID: 0}
    - target: {fileID: 916043253454517260, guid: a94ddd3190115eb409807474e931d1da,
        type: 3}
      propertyPath: m_StaticEditorFlags
      value: 4294967295
      objectReference: {fileID: 0}
    - target: {fileID: 916043254009198298, guid: a94ddd3190115eb409807474e931d1da,
        type: 3}
      propertyPath: sagAmplitude
      value: 0.7
      objectReference: {fileID: 0}
    - target: {fileID: 916043254009198298, guid: a94ddd3190115eb409807474e931d1da,
        type: 3}
      propertyPath: pointsInLineRenderer
      value: 5
      objectReference: {fileID: 0}
    - target: {fileID: 916043254009198298, guid: a94ddd3190115eb409807474e931d1da,
        type: 3}
      propertyPath: swayMultiplier
      value: 0
      objectReference: {fileID: 0}
    - target: {fileID: 916043254009198298, guid: a94ddd3190115eb409807474e931d1da,
        type: 3}
      propertyPath: swayYMultiplier
      value: 0
      objectReference: {fileID: 0}
    - target: {fileID: 916043254009198298, guid: a94ddd3190115eb409807474e931d1da,
        type: 3}
      propertyPath: swayFrequency
      value: 0
      objectReference: {fileID: 0}
    m_RemovedComponents: []
  m_SourcePrefab: {fileID: 100100000, guid: a94ddd3190115eb409807474e931d1da, type: 3}
